[gd_scene load_steps=2 format=2]

[ext_resource path="res://Resources/Textures/hat.svg" type="Texture" id=3]



[node name="GenericHat" type="Sprite"]
scale = Vector2( 0.1, 0.1 )
texture = ExtResource( 3 )
offset = Vector2( 0, -550 )
