[gd_scene load_steps=4 format=2]

[ext_resource path="res://Resources/Textures/rectangle.svg" type="Texture" id=1]
[ext_resource path="res://Scripts/Props/Button.gd" type="Script" id=2]



[sub_resource type="RectangleShape2D" id=1]

[node name="Button" type="Area2D"]
script = ExtResource( 2 )

[node name="CollisionShape2D" type="CollisionShape2D" parent="."]
shape = SubResource( 1 )

[node name="Sprite" type="Sprite" parent="."]
modulate = Color( 1, 0, 0, 1 )
scale = Vector2( 0.08, 0.08 )
texture = ExtResource( 1 )
[connection signal="body_entered" from="." to="." method="_on_Button_body_entered"]
[connection signal="body_exited" from="." to="." method="_on_Button_body_exited"]
